<!-- Generated by IcoMoon.io -->
<svg version="1.1" xmlns="http://www.w3.org/2000/svg" width="32" height="32" viewBox="0 0 32 32">
<title>fog2day</title>
<path fill="#444" d="M4.5 16.5q-0.188-0.188-0.188-0.469 0-0.25 0.188-0.438t0.438-0.188h2.875q0.25 0 0.406 0.188 0.188 0.188 0.188 0.438t-0.156 0.438-0.406 0.188h-2.906q-0.25 0-0.438-0.156zM24.156 8.438q0 0.25-0.156 0.438l-1.688 1.719q-0.219 0.188-0.469 0.188-0.281 0-0.469-0.219-0.156-0.156-0.156-0.406 0-0.281 0.156-0.438l1.719-1.75q0.188-0.156 0.438-0.156 0.281 0 0.469 0.156 0.156 0.188 0.156 0.469zM7.844 8.406q0-0.25 0.188-0.438 0.156-0.156 0.406-0.156 0.281 0 0.469 0.156l1.719 1.75q0.156 0.156 0.156 0.406 0 0.281-0.156 0.438-0.156 0.219-0.438 0.219t-0.469-0.188l-1.688-1.719q-0.188-0.188-0.188-0.469zM15.531 4.5q0.188-0.219 0.469-0.219 0.25 0 0.438 0.188 0.188 0.219 0.188 0.469v2.844q0 0.25-0.188 0.438t-0.438 0.188-0.438-0.156q-0.188-0.188-0.188-0.438v-2.875q0-0.25 0.156-0.438zM23.781 16.469q-0.188-0.156-0.188-0.438 0-0.25 0.188-0.438t0.438-0.188h2.875q0.25 0 0.406 0.188 0.188 0.188 0.188 0.438t-0.156 0.438-0.406 0.188h-2.906q-0.25 0-0.438-0.188zM21.344 19.281q-0.188 0.219-0.344 0.281t-0.406 0.031l-0.219-0.094q-0.219-0.156-0.281-0.406-0.031-0.25 0.063-0.469 0.719-1.156 0.719-2.594 0-2.063-1.375-3.438-1.406-1.406-3.5-1.406-2.031 0-3.438 1.375-1.406 1.406-1.406 3.469 0 1.406 0.656 2.531l0.094 0.188q0.031 0.219 0 0.375-0.063 0.156-0.188 0.281l-0.063 0.063q-0.281 0.156-0.531 0.094-0.219-0.063-0.375-0.25-0.906-1.438-0.906-3.281 0-2.594 1.781-4.375 1.813-1.813 4.406-1.813t4.375 1.781q1.813 1.813 1.813 4.406 0 1.781-0.844 3.219zM3.219 29.5q-0.219-0.25-0.219-0.563t0.219-0.531q0.25-0.25 0.563-0.25h22.844q0.344 0 0.563 0.219 0.219 0.25 0.219 0.563t-0.219 0.531q-0.219 0.25-0.563 0.25h-22.844q-0.313 0-0.563-0.219zM4.813 26.375q-0.219-0.25-0.219-0.563t0.219-0.531q0.25-0.25 0.563-0.25h22.844q0.344 0 0.563 0.219 0.219 0.25 0.219 0.563t-0.219 0.531q-0.219 0.25-0.563 0.25h-22.844q-0.313 0-0.563-0.219zM3.25 23.25q-0.25-0.25-0.25-0.563t0.219-0.531q0.25-0.25 0.563-0.25h22.844q0.344 0 0.563 0.219 0.219 0.25 0.219 0.563t-0.219 0.531q-0.219 0.25-0.563 0.25h-22.844q-0.313 0-0.531-0.219z"></path>
</svg>
