<!-- Generated by IcoMoon.io -->
<svg version="1.1" xmlns="http://www.w3.org/2000/svg" width="32" height="32" viewBox="0 0 32 32">
<title>MCLOUDY</title>
<path fill="#444" d="M8.344 16.594q-0.625-0.031-0.625-0.906 0.063-0.938 0.219-1.656-1.188 0.031-1.969 0.688-1.25 1.188-1.031 2.969-1.063 0.25-1.594 0.844-0.625 0.688-0.625 1.656 0.094 0.906 0.688 1.563 0.844 0.688 1.75 0.688h19.25q3.313 0 4.594-3.438l0.156-1.063q0.031-2.625-2.469-4-1.031-0.5-2.188-0.531-2.281 0-3.906 2.188-0.5 0.406-0.938 0.063-0.469-0.375-0.25-0.969 1.063-1.781 3.656-2.656-0.844-1.313-2.5-2.406-1.625-1-3.375-1h-0.781q-4.375 0.375-6.313 3.75-0.813 1.625-0.938 3.406-0.063 0.844-0.813 0.813zM5.719 23.781q-4.156-0.031-4.375-3.594v-0.094q0.031-2.156 2.219-3.375 0.188-1.188 0.781-2.094 1.25-1.844 3.969-2 0.438-0.969 1.125-1.844 1.094-1.563 3.406-2.719 1.656-0.719 3.813-0.844h0.25q3.375 0 6.063 2.344 0.938 0.938 1.969 2.438 2.156 0.125 4.031 1.813 1.656 1.781 1.656 3.844 0 4.219-4.094 5.875-0.875 0.219-2.5 0.25h-18.313z"></path>
</svg>
