<!-- Generated by IcoMoon.io -->
<svg version="1.1" xmlns="http://www.w3.org/2000/svg" width="32" height="32" viewBox="0 0 32 32">
<title>RAINDROP</title>
<path fill="#444" d="M15.969 0.375q10.219 14.125 10.219 18.469 0 0.188-0.031 0.375 0 3.906-2.813 6.594-2.969 2.656-7.375 2.656-4.25 0-7.063-2.656-3.125-2.688-3.125-6.594-0.031-0.188-0.031-0.375 0-4.375 10.219-18.469z"></path>
</svg>
