<?xml version="1.0" encoding="UTF-8" standalone="no"?>
<!-- Created with Inkscape (http://www.inkscape.org/) -->

<svg
   width="32"
   height="32"
   viewBox="0 0 8.4666665 8.4666669"
   version="1.1"
   id="svg5"
   inkscape:version="1.1.2 (0a00cf5339, 2022-02-04)"
   sodipodi:docname="thunar-paste-to-gist.svg"
   inkscape:export-filename="/home/tgy-tutorials/.icons/thunar-icons/thunar-paste-to-gist.png"
   inkscape:export-xdpi="96"
   inkscape:export-ydpi="96"
   xmlns:inkscape="http://www.inkscape.org/namespaces/inkscape"
   xmlns:sodipodi="http://sodipodi.sourceforge.net/DTD/sodipodi-0.dtd"
   xmlns="http://www.w3.org/2000/svg"
   xmlns:svg="http://www.w3.org/2000/svg">
  <sodipodi:namedview
     id="namedview7"
     pagecolor="#8c8c8c"
     bordercolor="#666666"
     borderopacity="1.0"
     inkscape:pageshadow="2"
     inkscape:pageopacity="0"
     inkscape:pagecheckerboard="0"
     inkscape:document-units="px"
     showgrid="false"
     units="px"
     inkscape:zoom="22.170588"
     inkscape:cx="16.034757"
     inkscape:cy="15.9671"
     inkscape:window-width="1920"
     inkscape:window-height="1020"
     inkscape:window-x="0"
     inkscape:window-y="28"
     inkscape:window-maximized="1"
     inkscape:current-layer="layer1" />
  <defs
     id="defs2" />
  <g
     inkscape:label="Livello 1"
     inkscape:groupmode="layer"
     id="layer1">
    <path
       d="m 4.2333346,0.32489878 c 2.1586202,0 3.90842,1.79396452 3.90842,4.00730272 0,1.7701231 -1.1185898,3.271738 -2.6706234,3.8021103 -0.1981569,0.03948 -0.2685085,-0.08559 -0.2685085,-0.192294 0,-0.132104 0.00469,-0.563594 0.00469,-1.0998294 0,-0.3736447 -0.1250695,-0.6175301 -0.2653816,-0.7418178 0.870405,-0.099274 1.7849752,-0.438134 1.7849752,-1.9772698 0,-0.4377429 -0.1516466,-0.7949724 -0.4025671,-1.075597 0.040647,-0.1012281 0.1747063,-0.5088763 -0.038303,-1.0607451 0,0 -0.3275254,-0.1074816 -1.073643,0.410775 C 4.9001111,2.3088125 4.5655505,2.2642565 4.2333346,2.2626932 c -0.3322156,0 -0.6663855,0.046119 -0.9782774,0.1348405 C 2.5081582,1.8792771 2.1798509,1.9867587 2.1798509,1.9867587 1.9676237,2.5386275 2.1016826,2.9462757 2.1419392,3.0475038 1.8921912,3.3281284 1.739372,3.6853579 1.739372,4.1231008 c 0,1.5352275 0.9126161,1.8791684 1.7806761,1.9803963 C 3.4082672,6.2035529 3.3070392,6.3802132 3.2718634,6.6393414 3.0490835,6.7417423 2.4831443,6.9187937 2.1345133,6.3063441 c 0,0 -0.2067554,-0.3849792 -0.5991608,-0.4131198 0,0 -0.3810709,-0.00508 -0.026577,0.2434946 0,0 0.2560014,0.1231153 0.4338345,0.586263 0,0 0.2294244,0.7152408 1.3167466,0.4729187 0.00196,0.3349516 0.00547,0.6507522 0.00547,0.7461172 0,0.105919 -0.071915,0.229815 -0.2669451,0.192685 C 1.4446752,7.6051121 0.32491262,6.1027157 0.32491262,4.3322015 c 0,-2.2133382 1.75019068,-4.00730272 3.90841998,-4.00730272"
       id="github-[#142]"
       style="fill:#2f333a;fill-opacity:1;fill-rule:evenodd;stroke:none;stroke-width:0.390841" />
  </g>
</svg>
