<?xml version="1.0" encoding="UTF-8" standalone="no"?>
<!-- Created with Inkscape (http://www.inkscape.org/) -->

<svg
   width="32"
   height="32"
   viewBox="0 0 8.4666665 8.4666669"
   version="1.1"
   id="svg5"
   inkscape:version="1.1.2 (0a00cf5339, 2022-02-04)"
   sodipodi:docname="android.svg"
   inkscape:export-filename="/home/tgy-tutorials/Scrivania/android.png"
   inkscape:export-xdpi="96"
   inkscape:export-ydpi="96"
   xmlns:inkscape="http://www.inkscape.org/namespaces/inkscape"
   xmlns:sodipodi="http://sodipodi.sourceforge.net/DTD/sodipodi-0.dtd"
   xmlns="http://www.w3.org/2000/svg"
   xmlns:svg="http://www.w3.org/2000/svg">
  <sodipodi:namedview
     id="namedview7"
     pagecolor="#8c8c8c"
     bordercolor="#666666"
     borderopacity="1.0"
     inkscape:pageshadow="2"
     inkscape:pageopacity="0"
     inkscape:pagecheckerboard="0"
     inkscape:document-units="px"
     showgrid="false"
     units="px"
     inkscape:showpageshadow="false"
     inkscape:zoom="22.142808"
     inkscape:cx="12.825835"
     inkscape:cy="13.254868"
     inkscape:window-width="1920"
     inkscape:window-height="996"
     inkscape:window-x="0"
     inkscape:window-y="28"
     inkscape:window-maximized="1"
     inkscape:current-layer="layer1" />
  <defs
     id="defs2" />
  <g
     inkscape:label="Livello 1"
     inkscape:groupmode="layer"
     id="layer1">
    <path
       id="path5845"
       style="fill:#e6e6e6;fill-opacity:1;stroke-width:2.28765"
       d="M 16 3.4335938 A 12.566 12.566 0 0 0 3.4335938 16 A 12.566 12.566 0 0 0 16 28.566406 A 12.566 12.566 0 0 0 28.566406 16 A 12.566 12.566 0 0 0 16 3.4335938 z M 10.539062 5.5253906 A 0.13772031 0.13772031 0 0 1 10.59375 5.5292969 A 0.13772031 0.13772031 0 0 1 10.673828 5.5957031 L 11.751953 7.4609375 C 12.682372 6.6194477 13.936765 6.0517137 15.34375 5.9160156 L 16.65625 5.9160156 C 18.062774 6.0517062 19.315801 6.6219307 20.246094 7.4628906 L 21.318359 5.5957031 A 0.13772031 0.13772031 0 0 1 21.511719 5.5429688 A 0.13772031 0.13772031 0 0 1 21.5625 5.7363281 L 20.451172 7.65625 C 21.334904 8.5413845 21.878928 9.6887983 21.896484 10.949219 L 10.103516 10.949219 C 10.121079 9.6887096 10.665074 8.539423 11.548828 7.6542969 L 10.4375 5.7363281 A 0.13772031 0.13772031 0 0 1 10.490234 5.5429688 A 0.13772031 0.13772031 0 0 1 10.539062 5.5253906 z M 10.066406 11.505859 L 21.935547 11.505859 C 21.939757 11.555258 21.941406 11.60557 21.941406 11.65625 L 21.941406 20.154297 C 21.941406 21.068117 21.218431 21.804688 20.320312 21.804688 L 20.257812 21.804688 L 20.257812 25.166016 C 20.257812 25.88813 19.671333 26.474609 18.949219 26.474609 C 18.227197 26.474609 17.642578 25.88813 17.642578 25.166016 L 17.642578 21.804688 L 14.357422 21.804688 L 14.357422 25.166016 C 14.357422 25.88813 13.772893 26.474609 13.050781 26.474609 C 12.328759 26.474609 11.742187 25.88813 11.742188 25.166016 L 11.742188 21.804688 L 11.679688 21.804688 C 10.781662 21.804687 10.056641 21.068209 10.056641 20.154297 L 10.056641 11.65625 C 10.056641 11.60557 10.062098 11.555439 10.066406 11.505859 z M 7.9570312 12.263672 C 8.6790525 12.263672 9.2636719 12.848202 9.2636719 13.570312 L 9.2636719 19.179688 C 9.2636719 19.901798 8.6790525 20.486328 7.9570312 20.486328 C 7.234918 20.486328 6.6484375 19.901706 6.6484375 19.179688 L 6.6484375 13.570312 C 6.648346 12.848202 7.2348258 12.263672 7.9570312 12.263672 z M 24.042969 12.263672 C 24.764991 12.263672 25.351562 12.848202 25.351562 13.570312 L 25.351562 19.179688 C 25.351562 19.901798 24.764991 20.486328 24.042969 20.486328 C 23.320857 20.486328 22.736328 19.901706 22.736328 19.179688 L 22.736328 13.570312 C 22.736328 12.848202 23.320857 12.263672 24.042969 12.263672 z "
       transform="scale(0.26458333)" />
    <path
       d="M 3.768597,2.277825 C 3.7688886,2.3743628 3.6889907,2.4528512 3.5901211,2.4531185 3.4913003,2.4533614 3.4109407,2.3753344 3.4106492,2.2787967 V 2.2778275 C 3.4103821,2.1812655 3.49028,2.1028013 3.5891252,2.1025341 3.6879467,2.1022668 3.7683055,2.1802695 3.768597,2.2768558 Z m 1.3359814,0 C 5.1048699,2.3743628 5.024972,2.4528512 4.9261024,2.4531185 4.8272808,2.4533614 4.746922,2.3753344 4.7466305,2.2787967 v -9.692e-4 c -2.671e-4,-0.096562 0.07963,-0.1750262 0.178476,-0.1752934 0.098821,-2.673e-4 0.1791803,0.077735 0.1794719,0.1743217 z"
       fill="#ffffff"
       id="path5808"
       style="stroke-width:0.0242923" />
  </g>
  <style
     type="text/css"
     id="style884">
	.st0{fill:#FFFFFF;}
	.st1{fill:#69B53F;}
	.st2{fill:#F8F8F8;}
</style>
</svg>
