<?xml version="1.0" encoding="UTF-8" standalone="no"?>
<!-- Created with Inkscape (http://www.inkscape.org/) -->

<svg
   id="svg3416"
   version="1.1"
   inkscape:version="1.1.2 (0a00cf5339, 2022-02-04)"
   width="24"
   height="24"
   viewBox="0 0 24 24"
   sodipodi:docname="radiotray-ng-off.svg"
   xmlns:inkscape="http://www.inkscape.org/namespaces/inkscape"
   xmlns:sodipodi="http://sodipodi.sourceforge.net/DTD/sodipodi-0.dtd"
   xmlns="http://www.w3.org/2000/svg"
   xmlns:svg="http://www.w3.org/2000/svg"
   xmlns:rdf="http://www.w3.org/1999/02/22-rdf-syntax-ns#"
   xmlns:cc="http://creativecommons.org/ns#"
   xmlns:dc="http://purl.org/dc/elements/1.1/"
   xmlns:sketch="http://www.bohemiancoding.com/sketch/ns">
  <metadata
     id="metadata3422">
    <rdf:RDF>
      <cc:Work
         rdf:about="">
        <dc:format>image/svg+xml</dc:format>
        <dc:type
           rdf:resource="http://purl.org/dc/dcmitype/StillImage" />
      </cc:Work>
    </rdf:RDF>
  </metadata>
  <defs
     id="defs3420" />
  <sodipodi:namedview
     pagecolor="#ffffff"
     bordercolor="#666666"
     borderopacity="1"
     objecttolerance="10"
     gridtolerance="10"
     guidetolerance="10"
     inkscape:pageopacity="0"
     inkscape:pageshadow="2"
     inkscape:window-width="1920"
     inkscape:window-height="1020"
     id="namedview3418"
     showgrid="false"
     inkscape:zoom="20.85965"
     inkscape:cx="6.7354917"
     inkscape:cy="9.635828"
     inkscape:window-x="0"
     inkscape:window-y="28"
     inkscape:window-maximized="1"
     inkscape:current-layer="svg3416"
     inkscape:pagecheckerboard="0" />
  <path
     d="m 15.676201,18.620467 c -2.43585,0 -4.411441,-1.974855 -4.411441,-4.411442 0,-2.435851 1.975591,-4.4114424 4.411441,-4.4114424 2.435852,0 4.411442,1.9755914 4.411442,4.4114424 0,2.436587 -1.97559,4.411442 -4.411442,4.411442 z M 8.3237995,12.003304 h -4.411442 c -0.4065877,0 -0.7352396,-0.328652 -0.7352396,-0.735239 0,-0.406589 0.3286519,-0.735241 0.7352396,-0.735241 h 4.411442 c 0.4065877,0 0.7352403,0.328652 0.7352403,0.735241 0,0.406587 -0.3286526,0.735239 -0.7352403,0.735239 z m 0,2.940962 h -4.411442 c -0.4065877,0 -0.7352396,-0.328653 -0.7352396,-0.735241 0,-0.406587 0.3286519,-0.73524 0.7352396,-0.73524 h 4.411442 c 0.4065877,0 0.7352403,0.328653 0.7352403,0.73524 0,0.406588 -0.3286526,0.735241 -0.7352403,0.735241 z m 0,2.940961 h -4.411442 c -0.4065877,0 -0.7352396,-0.328652 -0.7352396,-0.735241 0,-0.405852 0.3286519,-0.73524 0.7352396,-0.73524 h 4.411442 c 0.4065877,0 0.7352403,0.329388 0.7352403,0.73524 0,0.406589 -0.3286526,0.735241 -0.7352403,0.735241 z M 20.822884,6.121381 H 19.27888 L 11.533858,1.7981684 C 11.182413,1.6025942 10.732446,1.7194944 10.52952,2.0569728 10.326593,2.3944478 10.44718,2.8260339 10.798617,3.0208732 L 16.393061,6.121381 H 3.1771179 c -1.6241471,0 -2.94096285,1.3168154 -2.94096285,2.9409613 V 19.355707 c 0,1.624146 1.31681575,2.940962 2.94096285,2.940962 H 20.822884 c 1.624145,0 2.940961,-1.316816 2.940961,-2.940962 V 9.0623423 c 0,-1.6241459 -1.316816,-2.9409613 -2.940961,-2.9409613 z m -5.146683,5.146684 c -1.624145,0 -2.94096,1.316814 -2.94096,2.94096 0,1.624146 1.316815,2.940961 2.94096,2.940961 1.624146,0 2.940962,-1.316815 2.940962,-2.940961 0,-1.624146 -1.316816,-2.94096 -2.940962,-2.94096 z"
     id="radio"
     sketch:type="MSShapeGroup"
     style="fill:#2f333a;fill-opacity:1;fill-rule:evenodd;stroke:none;stroke-width:0.735242" />
</svg>
