<?xml version="1.0" encoding="UTF-8"?>
<!-- Uploaded to: SVG Repo, www.svgrepo.com, Generator: SVG Repo Mixer Tools -->
<svg width="800px" height="800px" viewBox="0 0 100 100" xmlns="http://www.w3.org/2000/svg" version="1.1">

  <path style="fill:#555555;stroke:#222222;stroke-width:3" d="m 50,50 0,43 C 19,93 7,71 7,51 7,25 25,7 50,7 75,7 92,23 92,50 z"/>
  <path style="fill:#367CD4;stroke:#0F3C59;stroke-width:3" d="m 56,56 0,42 C 80,98 97,82 97,56 z"/>

</svg>