<?xml version="1.0" encoding="UTF-8" standalone="no"?>
<!-- Created with Inkscape (http://www.inkscape.org/) -->

<svg
   id="svg3416"
   version="1.1"
   inkscape:version="1.1.2 (0a00cf5339, 2022-02-04)"
   width="24"
   height="24"
   viewBox="0 0 24 24"
   sodipodi:docname="radiotray-ng-off.svg"
   xmlns:inkscape="http://www.inkscape.org/namespaces/inkscape"
   xmlns:sodipodi="http://sodipodi.sourceforge.net/DTD/sodipodi-0.dtd"
   xmlns="http://www.w3.org/2000/svg"
   xmlns:svg="http://www.w3.org/2000/svg"
   xmlns:rdf="http://www.w3.org/1999/02/22-rdf-syntax-ns#"
   xmlns:cc="http://creativecommons.org/ns#"
   xmlns:dc="http://purl.org/dc/elements/1.1/">
  <metadata
     id="metadata3422">
    <rdf:RDF>
      <cc:Work
         rdf:about="">
        <dc:format>image/svg+xml</dc:format>
        <dc:type
           rdf:resource="http://purl.org/dc/dcmitype/StillImage" />
      </cc:Work>
    </rdf:RDF>
  </metadata>
  <defs
     id="defs3420" />
  <sodipodi:namedview
     pagecolor="#ffffff"
     bordercolor="#666666"
     borderopacity="1"
     objecttolerance="10"
     gridtolerance="10"
     guidetolerance="10"
     inkscape:pageopacity="0"
     inkscape:pageshadow="2"
     inkscape:window-width="1920"
     inkscape:window-height="1020"
     id="namedview3418"
     showgrid="false"
     inkscape:zoom="13.403145"
     inkscape:cx="5.1107408"
     inkscape:cy="10.072263"
     inkscape:window-x="0"
     inkscape:window-y="28"
     inkscape:window-maximized="1"
     inkscape:current-layer="svg3416"
     inkscape:pagecheckerboard="0" />
  <path
     d="m 16.967912,5.6917543 -1.674324,1.5728939 c 1.674324,1.5728941 1.79155,4.8343668 0.117227,6.4072608 l 1.674323,1.574006 C 19.596624,12.885463 19.479399,8.0510949 16.967912,5.6917543 M 20.31656,2.5459666 18.642236,4.1188605 c 3.349833,3.1457877 3.467059,9.5530485 0.117226,12.6999495 l 1.674325,1.572893 C 25.457943,13.671909 24.503556,6.4782012 20.31656,2.5459666 m -6.620329,6.3816776 c -0.02724,-0.02892 -0.04735,-0.06118 -0.07697,-0.090101 h -0.0048 c -0.924733,-0.8687629 -2.51025,-0.7875597 -3.347413,-0.00114 -0.8371621,0.7864464 -0.8347936,2.3571148 0.0024,3.1435618 0.01066,0.01112 0.02369,0.01557 0.03434,0.02558 0.02723,0.02892 0.04735,0.06118 0.07697,0.089 h 0.0048 c 0.669019,0.628486 0.431014,-1.4472 0.431014,9.360605 h 2.36821 c 0,-11.059201 -0.292474,-8.569713 0.54824,-9.359496 0.837163,-0.786448 0.834795,-2.3571156 -0.0024,-3.1435632 -0.01066,-0.01112 -0.02369,-0.01557 -0.03434,-0.02559 M 8.5891868,7.263503 6.9148627,5.6906092 C 4.403376,8.0499496 4.5206026,12.884317 7.0320893,15.244771 L 8.7064134,13.670764 C 7.0320893,12.097871 6.9148627,8.8363969 8.5891868,7.263503 M 5.3577642,16.817664 3.6834411,18.390557 C -0.50355534,14.457243 -1.4579435,7.2635357 3.5662136,2.5448543 L 5.2405377,4.1177481 C 1.8907047,7.2635357 2.0079314,13.670797 5.3577634,16.817697"
     id="radio_tower-[#1019]"
     style="fill:#2f333a;fill-opacity:1;fill-rule:evenodd;stroke:none;stroke-width:1.14768" />
</svg>
