{
	"bookmarks" : "/home/tgy-tutorials/.config/radiotray-ng/bookmarks.json",
	"last-station" : "80's 90's old music radio",
	"last-station-group" : "root",
	"last-station-notifications" : true,
	"notification-verbose" : true,
	"notifications" : true,
	"split-title" : true,
	"volume-level" : 100
}